{
  "name": "dm-screen-dnd",
  "title": "Regras Rapidas de D&D 5e",
  "description": "A module containing a compendium pack",
  "author": "Gustavo Bacelar",
  "version": "1.0.0",
  "minimumCoreVersion": "0.7.0",
  "compatibleCoreVersion":"0.7.0",
  "repository": {
    "type": "git",
    "url": "https://gitlab.com/gubacelar/dnd-quickrules.git"
  },
  "packs": [
          {
            "name": "quick-rules",
            "label": "Regras Rapidas",
            "path": "packs/quick-rules.db",
            "entity": "JournalEntry"
        }
      ]
  }
